…
``` r
# Print the result
result_agent
#> Prisoner Game
#> Teams: 100
#> Prisoners: 100
#> Simulation Completed?: TRUE
```

Access key results using `pull_*()` functions:

``` r
# What were the key outcomes for each team?
pull_outcomes(result_agent)
#> # A tibble: 100 × 2
#>    is_success boxes_opened_n_max
#>    <lgl>                   <dbl>
#>  1 FALSE                      86
#>  2 FALSE                      77
#>  3 FALSE                      82
#>  4 FALSE                      57
#>  5 FALSE                      60
#>  6 FALSE                      79
#>  7 TRUE                       46
#>  8 FALSE                      62
#>  9 FALSE                      74
#> 10 FALSE                      91
#> # ℹ 90 more rows
…
